{
  "operationId": "atlassianGetallissuefieldoptions",
  "method": "GET",
  "path": "/rest/api/3/field/{fieldKey}/option",
  "summary": "Atlassian Get All Issue Field Options",
  "requestExamples": [],
  "responseExamples": [
    {
      "status": "200",
      "contentType": "application/json",
      "example": "{\"isLast\":false,\"maxResults\":1,\"nextPage\":\"https://your-domain.atlassian.net/rest/api/3/field/fieldKey/option?startAt=1&maxResults=1\",\"self\":\"https://your-domain.atlassian.net/rest/api/3/field/fieldKey/option?startAt=0&maxResults=1\",\"startAt\":0,\"total\":10,\"values\":[{\"id\":1,\"value\":\"Team 1\",\"properties\":{\"leader\":{\"name\":\"Leader Name\",\"email\":\"lname@example.com\"},\"members\":42,\"description\":\"The team's description\",\"founded\":\"2016-06-06\"},\"config\":{\"scope\":{\"projects\":[],\"projects2\":[{\"id\":1001,\"attributes\":[\"notSelectable\"]},{\"id\":1002,\"attributes\":[\"notSelectable\"]}],\"global\":{}},\"attributes\":[]}}]}"
    }
  ]
}