{
  "operationId": "atlassianGetusersfromgroup",
  "method": "GET",
  "path": "/rest/api/3/group/member",
  "summary": "Atlassian Get Users From Group",
  "requestExamples": [],
  "responseExamples": [
    {
      "status": "200",
      "contentType": "application/json",
      "example": "{\"isLast\":false,\"maxResults\":2,\"nextPage\":\"https://your-domain.atlassian.net/rest/api/3/group/member?groupId=276f955c-63d7-42c8-9520-92d01dca0625&includeInactiveUsers=false&startAt=4&maxResults=2\",\"self\":\"https://your-domain.atlassian.net/rest/api/3/group/member?groupId=276f955c-63d7-42c8-9520-92d01dca0625&includeInactiveUsers=false&startAt=2&maxResults=2\",\"startAt\":3,\"total\":5,\"values\":[{\"accountId\":\"5b10a2844c20165700ede21g\",\"accountType\":\"atlassian\",\"active\":true,\"avatarUrls\":{},\"displayName\":\"Mia\",\"emailAddress\":\"mia@example.com\",\"key\":\"\",\"name\":\"\",\"self\":\"https://your-domain.atlassian.net/rest/api/3/user?accountId=5b10a2844c20165700ede21g\",\"timeZone\":\"Australia/Sydney\"},{\"accountId\":\"5b10a0effa615349cb016cd8\",\"accountType\":\"atlassian\",\"active\":false,\"avatarUrls\":{},\"displayName\":\"Will\",\"emailAddress\":\"will@example.com\",\"key\":\"\",\"name\":\"\",\"self\":\"https://your-domain.atlassian.net/rest/api/3/user?accountId=5b10a0effa615349cb016cd8\",\"timeZone\":\"Australia/Sydney\"}]}"
    }
  ]
}