{
  "operationId": "atlassianGetselectableissuefieldoptions",
  "method": "GET",
  "path": "/rest/api/3/field/{fieldKey}/option/suggestions/edit",
  "summary": "Atlassian Get Selectable Issue Field Options",
  "requestExamples": [],
  "responseExamples": [
    {
      "status": "200",
      "contentType": "application/json",
      "example": "{\"isLast\":false,\"maxResults\":1,\"nextPage\":\"https://your-domain.atlassian.net/rest/api/3/field/fieldKey/option/suggestions?startAt=1&maxResults=1\",\"self\":\"https://your-domain.atlassian.net/rest/api/3/field/fieldKey/option/suggestions?startAt=0&maxResults=1\",\"startAt\":0,\"total\":10,\"values\":[{\"id\":1,\"value\":\"Team 1\",\"properties\":{\"leader\":{\"name\":\"Leader Name\",\"email\":\"lname@example.com\"},\"members\":42,\"description\":\"The team's description\",\"founded\":\"2016-06-06\"}}]}"
    }
  ]
}